{
    "$schema": "http://json-schema.org/draft-07/schema#",
    "$id": "utilities.schema.json",
    "title": "JSON Schema for transformer plugins.",
    "description": "https://docs.meltano.com/concepts/plugins#transformers",
    "type": "object",
    "allOf": [
        {
            "$ref": "common.schema.json"
        },
        {
            "additionalProperties": false,
            "properties": {
                "name": {},
                "pip_url": {},
                "namespace": {},
                "repo": {},
                "label": {},
                "description": {},
                "executable": {},
                "settings": {},
                "docs": {},
                "settings_group_validation": {},
                "commands": {},
                "variant": {},
                "logo_url": {}
            }
        }
    ]
}